lattice/backsub/wave.vcd
$version
Export to VCD from ASDB format v2.0.932
$end

$date
Wed Jan 04 15:17:14 2017
$end

$timescale
	1 ps
$end

$scope module tb_dual_diagonal_backsub $end
$var reg 32 ! glbl_err_count [31:0] $end
$var reg 16 " i_in_data [WIDTH-1:0] $end
$var reg 32 # increment_value [31:0] $end
$var reg 32 $ local_err_count [31:0] $end
$var reg 16 % o_out_data [WIDTH-1:0] $end
$var reg 32 & run_count [31:0] $end
$var reg 32 ' stored_value [31:0] $end
$var reg 1 - i_clock $end
$var reg 1 . i_in_valid $end
$var reg 1 / i_reset $end
$var reg 1 0 o_out_valid $end
$scope module uut $end
$var wire 16 ( i_in_data [WIDTH-1:0] $end
$var reg 16 ) o_out_data [WIDTH-1:0] $end
$var reg 16 * out_data_reg [WIDTH-1:0] $end
$var reg 16 + reg_data_reg [WIDTH-1:0] $end
$var reg 3 , word_count [$clog2(NUM_WORDS)-1:0] $end
$var reg 1 0 o_out_valid $end
$var wire 1 2 i_clock $end
$var wire 1 3 i_in_valid $end
$var wire 1 4 i_reset $end
$var reg 1 5 out_valid_reg $end
$upscope $end
$upscope $end

$enddefinitions $end

#0
$dumpvars
b0 !
bX "
b1 #
b0 $
bX %
b0 &
b0 '
bX (
bX )
bX *
bX +
bX ,
X-
X.
1/
X0
X2
X3
14
X5
$end
#50
b0 %
b0 )
b0 *
b0 +
b0 ,
1-
00
12
05
#100
0-
02
#150
1-
12
#200
0-
02
#250
1-
12
#300
0-
02
#350
1-
12
#400
0-
02
#450
1-
12
#500
0-
02
#550
1-
12
#600
0-
02
#650
1-
12
#700
0-
02
#750
1-
12
#800
0-
02
#850
1-
12
#900
0-
02
#950
1-
12
#1000
0-
02
#1050
1-
12
#1100
0-
02
#1150
1-
12
#1200
0-
02
#1250
1-
12
#1300
0-
02
#1350
1-
12
#1400
0-
02
#1450
1-
12
#1500
0-
02
#1550
1-
12
#1600
0-
02
#1650
1-
12
#1700
0-
02
#1750
1-
12
#1800
0-
02
#1850
1-
12
#1900
0-
02
#1950
1-
12
#2000
0-
02
#2050
1-
12
#2100
0-
02
#2150
1-
12
#2200
0-
02
#2250
1-
12
#2300
0-
02
#2350
1-
12
#2400
0-
02
#2450
1-
12
#2500
0-
02
#2550
1-
12
#2600
0-
02
#2650
1-
12
#2700
0-
02
#2750
1-
12
#2800
0-
02
#2850
1-
12
#2900
0-
02
#2950
1-
12
#3000
0-
02
#3050
1-
12
#3100
0-
02
#3150
1-
12
#3200
0-
02
#3250
1-
12
#3300
0-
02
#3350
1-
12
#3400
0-
02
#3450
1-
12
#3500
0-
02
#3550
1-
12
#3600
0-
02
#3650
1-
12
#3700
0-
02
#3750
1-
12
#3800
0-
02
#3850
1-
12
#3900
0-
02
#3950
1-
12
#4000
0-
02
#4050
1-
12
#4100
0-
02
#4150
1-
12
#4200
0-
02
#4250
1-
12
#4300
0-
02
#4350
1-
12
#4400
0-
02
#4450
1-
12
#4500
0-
02
#4550
1-
12
#4600
0-
02
#4650
1-
12
#4700
0-
02
#4750
1-
12
#4800
0-
02
#4850
1-
12
#4900
0-
02
#4950
1-
12
#5000
0-
02
#5050
1-
12
#5100
0-
02
#5150
1-
12
#5200
0-
02
#5250
1-
12
#5300
0-
02
#5350
1-
12
#5400
0-
02
#5450
1-
12
#5500
0-
02
#5550
1-
12
#5600
0-
02
#5650
1-
12
#5700
0-
02
#5750
1-
12
#5800
0-
02
#5850
1-
12
#5900
0-
02
#5950
1-
12
#6000
0-
02
#6050
1-
12
#6100
0-
02
#6150
1-
12
#6200
0-
02
#6250
1-
12
#6300
0-
02
#6350
1-
12
#6400
0-
02
#6450
1-
12
#6500
0-
02
#6550
1-
12
#6600
0-
02
#6650
1-
12
#6700
0-
02
#6750
1-
12
#6800
0-
02
#6850
1-
12
#6900
0-
02
#6950
1-
12
#7000
0-
02
#7050
1-
12
#7100
0-
02
#7150
1-
12
#7200
0-
02
#7250
1-
12
#7300
0-
02
#7350
1-
12
#7400
0-
02
#7450
1-
12
#7500
0-
02
#7550
1-
12
#7600
0-
02
#7650
1-
12
#7700
0-
02
#7750
1-
12
#7800
0-
02
#7850
1-
12
#7900
0-
02
#7950
1-
12
#8000
0-
02
#8050
1-
12
#8100
0-
02
#8150
1-
12
#8200
0-
02
#8250
1-
12
#8300
0-
02
#8350
1-
12
#8400
0-
02
#8450
1-
12
#8500
0-
02
#8550
1-
12
#8600
0-
02
#8650
1-
12
#8700
0-
02
#8750
1-
12
#8800
0-
02
#8850
1-
12
#8900
0-
02
#8950
1-
12
#9000
0-
02
#9050
1-
12
#9100
0-
02
#9150
1-
12
#9200
0-
02
#9250
1-
12
#9300
0-
02
#9350
1-
12
#9400
0-
02
#9450
1-
12
#9500
0-
02
#9550
1-
12
#9600
0-
02
#9650
1-
12
#9700
0-
02
#9750
1-
12
#9800
0-
02
#9850
1-
12
#9900
0-
02
#9950
1-
12
#10000
b0 "
b0 (
0-
0.
02
03
#10050
1-
12
#10100
0-
02
#10150
1-
12
#10200
0-
02
#10250
1-
12
#10300
0-
02
#10350
1-
12
#10400
0-
02
#10450
1-
12
#10500
0-
02
#10550
1-
12
#10600
0-
02
#10650
1-
12
#10700
0-
02
#10750
1-
12
#10800
0-
02
#10850
1-
12
#10900
0-
02
#10950
1-
12
#11000
0-
02
#11050
1-
12
#11100
0-
02
#11150
1-
12
#11200
0-
02
#11250
1-
12
#11300
0-
02
#11350
1-
12
#11400
0-
02
#11450
1-
12
#11500
0-
02
#11550
1-
12
#11600
0-
02
#11650
1-
12
#11700
0-
02
#11750
1-
12
#11800
0-
02
#11850
1-
12
#11900
0-
02
#11950
1-
12
#12000
0-
02
#12050
1-
12
#12100
0-
02
#12150
1-
12
#12200
0-
02
#12250
1-
12
#12300
0-
02
#12350
1-
12
#12400
0-
02
#12450
1-
12
#12500
0-
02
#12550
1-
12
#12600
0-
02
#12650
1-
12
#12700
0-
02
#12750
1-
12
#12800
0-
02
#12850
1-
12
#12900
0-
02
#12950
1-
12
#13000
0-
02
#13050
1-
12
#13100
0-
02
#13150
1-
12
#13200
0-
02
#13250
1-
12
#13300
0-
02
#13350
1-
12
#13400
0-
02
#13450
1-
12
#13500
0-
02
#13550
1-
12
#13600
0-
02
#13650
1-
12
#13700
0-
02
#13750
1-
12
#13800
0-
02
#13850
1-
12
#13900
0-
02
#13950
1-
12
#14000
0-
02
#14050
1-
12
#14100
0-
02
#14150
1-
12
#14200
0-
02
#14250
1-
12
#14300
0-
02
#14350
1-
12
#14400
0-
02
#14450
1-
12
#14500
0-
02
#14550
1-
12
#14600
0-
02
#14650
1-
12
#14700
0-
02
#14750
1-
12
#14800
0-
02
#14850
1-
12
#14900
0-
02
#14950
1-
12
#15000
0-
02
#15050
1-
12
#15100
0-
02
#15150
1-
12
#15200
0-
02
#15250
1-
12
#15300
0-
02
#15350
1-
12
#15400
0-
02
#15450
1-
12
#15500
0-
02
#15550
1-
12
#15600
0-
02
#15650
1-
12
#15700
0-
02
#15750
1-
12
#15800
0-
02
#15850
1-
12
#15900
0-
02
#15950
1-
12
#16000
0-
02
#16050
1-
12
#16100
0-
02
#16150
1-
12
#16200
0-
02
#16250
1-
12
#16300
0-
02
#16350
1-
12
#16400
0-
02
#16450
1-
12
#16500
0-
02
#16550
1-
12
#16600
0-
02
#16650
1-
12
#16700
0-
02
#16750
1-
12
#16800
0-
02
#16850
1-
12
#16900
0-
02
#16950
1-
12
#17000
0-
02
#17050
1-
12
#17100
0-
02
#17150
1-
12
#17200
0-
02
#17250
1-
12
#17300
0-
02
#17350
1-
12
#17400
0-
02
#17450
1-
12
#17500
0-
02
#17550
1-
12
#17600
0-
02
#17650
1-
12
#17700
0-
02
#17750
1-
12
#17800
0-
02
#17850
1-
12
#17900
0-
02
#17950
1-
12
#18000
0-
02
#18050
1-
12
#18100
0-
02
#18150
1-
12
#18200
0-
02
#18250
1-
12
#18300
0-
02
#18350
1-
12
#18400
0-
02
#18450
1-
12
#18500
0-
02
#18550
1-
12
#18600
0-
02
#18650
1-
12
#18700
0-
02
#18750
1-
12
#18800
0-
02
#18850
1-
12
#18900
0-
02
#18950
1-
12
#19000
0-
02
#19050
1-
12
#19100
0-
02
#19150
1-
12
#19200
0-
02
#19250
1-
12
#19300
0-
02
#19350
1-
12
#19400
0-
02
#19450
1-
12
#19500
0-
02
#19550
1-
12
#19600
0-
02
#19650
1-
12
#19700
0-
02
#19750
1-
12
#19800
0-
02
#19850
1-
12
#19900
0-
02
#19950
1-
12
#20000
0-
02
#20050
1-
12
#20100
0-
02
#20150
1-
12
#20200
0-
02
#20250
1-
12
#20300
0-
02
#20350
1-
12
#20400
0-
02
#20450
1-
12
#20500
0-
02
#20550
1-
12
#20600
0-
02
#20650
1-
12
#20700
0-
02
#20750
1-
12
#20800
0-
02
#20850
1-
12
#20900
0-
02
#20950
1-
12
#21000
0-
02
#21050
1-
12
#21100
0-
02
#21150
1-
12
#21200
0-
02
#21250
1-
12
#21300
0-
02
#21350
1-
12
#21400
0-
02
#21450
1-
12
#21500
0-
02
#21550
1-
12
#21600
0-
02
#21650
1-
12
#21700
0-
02
#21750
1-
12
#21800
0-
02
#21850
1-
12
#21900
0-
02
#21950
1-
12
#22000
0-
02
#22050
1-
12
#22100
0-
02
#22150
1-
12
#22200
0-
02
#22250
1-
12
#22300
0-
02
#22350
1-
12
#22400
0-
02
#22450
1-
12
#22500
0-
02
#22550
1-
12
#22600
0-
02
#22650
1-
12
#22700
0-
02
#22750
1-
12
#22800
0-
02
#22850
1-
12
#22900
0-
02
#22950
1-
12
#23000
0-
02
#23050
1-
12
#23100
0-
02
#23150
1-
12
#23200
0-
02
#23250
1-
12
#23300
0-
02
#23350
1-
12
#23400
0-
02
#23450
1-
12
#23500
0-
02
#23550
1-
12
#23600
0-
02
#23650
1-
12
#23700
0-
02
#23750
1-
12
#23800
0-
02
#23850
1-
12
#23900
0-
02
#23950
1-
12
#24000
0-
02
#24050
1-
12
#24100
0-
02
#24150
1-
12
#24200
0-
02
#24250
1-
12
#24300
0-
02
#24350
1-
12
#24400
0-
02
#24450
1-
12
#24500
0-
02
#24550
1-
12
#24600
0-
02
#24650
1-
12
#24700
0-
02
#24750
1-
12
#24800
0-
02
#24850
1-
12
#24900
0-
02
#24950
1-
12
#25000
0-
02
#25050
1-
12
#25100
0-
02
#25150
1-
12
#25200
0-
02
#25250
1-
12
#25300
0-
02
#25350
1-
12
#25400
0-
02
#25450
1-
12
#25500
0-
02
#25550
1-
12
#25600
0-
02
#25650
1-
12
#25700
0-
02
#25750
1-
12
#25800
0-
02
#25850
1-
12
#25900
0-
02
#25950
1-
12
#26000
0-
02
#26050
1-
12
#26100
0-
02
#26150
1-
12
#26200
0-
02
#26250
1-
12
#26300
0-
02
#26350
1-
12
#26400
0-
02
#26450
1-
12
#26500
0-
02
#26550
1-
12
#26600
0-
02
#26650
1-
12
#26700
0-
02
#26750
1-
12
#26800
0-
02
#26850
1-
12
#26900
0-
02
#26950
1-
12
#27000
0-
02
#27050
1-
12
#27100
0-
02
#27150
1-
12
#27200
0-
02
#27250
1-
12
#27300
0-
02
#27350
1-
12
#27400
0-
02
#27450
1-
12
#27500
0-
02
#27550
1-
12
#27600
0-
02
#27650
1-
12
#27700
0-
02
#27750
1-
12
#27800
0-
02
#27850
1-
12
#27900
0-
02
#27950
1-
12
#28000
0-
02
#28050
1-
12
#28100
0-
02
#28150
1-
12
#28200
0-
02
#28250
1-
12
#28300
0-
02
#28350
1-
12
#28400
0-
02
#28450
1-
12
#28500
0-
02
#28550
1-
12
#28600
0-
02
#28650
1-
12
#28700
0-
02
#28750
1-
12
#28800
0-
02
#28850
1-
12
#28900
0-
02
#28950
1-
12
#29000
0-
02
#29050
1-
12
#29100
0-
02
#29150
1-
12
#29200
0-
02
#29250
1-
12
#29300
0-
02
#29350
1-
12
#29400
0-
02
#29450
1-
12
#29500
0-
02
#29550
1-
12
#29600
0-
02
#29650
1-
12
#29700
0-
02
#29750
1-
12
#29800
0-
02
#29850
1-
12
#29900
0-
02
#29950
1-
12
#30000
0-
0/
02
04
#30050
1-
12
#30100
0-
02
#30150
1-
12
#30200
0-
02
#30250
1-
12
#30300
0-
02
#30350
1-
12
#30400
0-
02
#30450
1-
12
#30500
0-
02
#30550
1-
12
#30600
0-
02
#30650
1-
12
#30700
0-
02
#30750
1-
12
#30800
0-
02
#30850
1-
12
#30900
0-
02
#30950
1-
12
#31000
0-
02
#31050
1-
12
#31100
0-
02
#31150
1-
12
#31200
0-
02
#31250
1-
12
#31300
0-
02
#31350
1-
12
#31400
0-
02
#31450
1-
12
#31500
0-
02
#31550
1-
12
#31600
0-
02
#31650
1-
12
#31700
0-
02
#31750
1-
12
#31800
0-
02
#31850
1-
12
#31900
0-
02
#31950
1-
12
#32000
0-
02
#32050
1-
12
#32100
0-
02
#32150
1-
12
#32200
0-
02
#32250
1-
12
#32300
0-
02
#32350
1-
12
#32400
0-
02
#32450
1-
12
#32500
0-
02
#32550
1-
12
#32600
0-
02
#32650
1-
12
#32700
0-
02
#32750
1-
12
#32800
0-
02
#32850
1-
12
#32900
0-
02
#32950
1-
12
#33000
0-
02
#33050
1-
12
#33100
0-
02
#33150
1-
12
#33200
0-
02
#33250
1-
12
#33300
0-
02
#33350
1-
12
#33400
0-
02
#33450
1-
12
#33500
0-
02
#33550
1-
12
#33600
0-
02
#33650
1-
12
#33700
0-
02
#33750
1-
12
#33800
0-
02
#33850
1-
12
#33900
0-
02
#33950
1-
12
#34000
0-
02
#34050
1-
12
#34100
0-
02
#34150
1-
12
#34200
0-
02
#34250
1-
12
#34300
0-
02
#34350
1-
12
#34400
0-
02
#34450
1-
12
#34500
0-
02
#34550
1-
12
#34600
0-
02
#34650
1-
12
#34700
0-
02
#34750
1-
12
#34800
0-
02
#34850
1-
12
#34900
0-
02
#34950
1-
12
#35000
0-
02
#35050
1-
12
#35100
0-
02
#35150
1-
12
#35200
0-
02
#35250
1-
12
#35300
0-
02
#35350
1-
12
#35400
0-
02
#35450
1-
12
#35500
0-
02
#35550
1-
12
#35600
0-
02
#35650
1-
12
#35700
0-
02
#35750
1-
12
#35800
0-
02
#35850
1-
12
#35900
0-
02
#35950
1-
12
#36000
0-
02
#36050
1-
12
#36100
0-
02
#36150
1-
12
#36200
0-
02
#36250
1-
12
#36300
0-
02
#36350
1-
12
#36400
0-
02
#36450
1-
12
#36500
0-
02
#36550
1-
12
#36600
0-
02
#36650
1-
12
#36700
0-
02
#36750
1-
12
#36800
0-
02
#36850
1-
12
#36900
0-
02
#36950
1-
12
#37000
0-
02
#37050
1-
12
#37100
0-
02
#37150
1-
12
#37200
0-
02
#37250
1-
12
#37300
0-
02
#37350
1-
12
#37400
0-
02
#37450
1-
12
#37500
0-
02
#37550
1-
12
#37600
0-
02
#37650
1-
12
#37700
0-
02
#37750
1-
12
#37800
0-
02
#37850
1-
12
#37900
0-
02
#37950
1-
12
#38000
0-
02
#38050
1-
12
#38100
0-
02
#38150
1-
12
#38200
0-
02
#38250
1-
12
#38300
0-
02
#38350
1-
12
#38400
0-
02
#38450
1-
12
#38500
0-
02
#38550
1-
12
#38600
0-
02
#38650
1-
12
#38700
0-
02
#38750
1-
12
#38800
0-
02
#38850
1-
12
#38900
0-
02
#38950
1-
12
#39000
0-
02
#39050
1-
12
#39100
0-
02
#39150
1-
12
#39200
0-
02
#39250
1-
12
#39300
0-
02
#39350
1-
12
#39400
0-
02
#39450
1-
12
#39500
0-
02
#39550
1-
12
#39600
0-
02
#39650
1-
12
#39700
0-
02
#39750
1-
12
#39800
0-
02
#39850
1-
12
#39900
0-
02
#39950
1-
12
#40000
0-
1.
02
13
#40050
b1 ,
1-
10
12
15
#40080
0.
03
#40100
0-
02
#40150
b1 &
b1 '
1-
00
12
05
