lattice/backsub/wave.vcd
$version
Export to VCD from ASDB format v2.0.932
$end

$date
Fri Jan 06 09:54:05 2017
$end

$timescale
	1 ps
$end

$scope module tb_dual_diagonal_backsub $end
$var reg 32 ! glbl_err_count [31:0] $end
$var reg 16 " i_in_data [WIDTH-1:0] $end
$var reg 32 # local_err_count [31:0] $end
$var reg 16 $ o_out_data [WIDTH-1:0] $end
$var reg 32 % run_count [31:0] $end
$var integer 32 & stimulus.10unnblk.count $end
$var integer 32 ' stimulus.13unnblk.count $end
$var integer 32 ( stimulus.6unnblk.count $end
$var reg 32 ) test_number [31:0] $end
$var reg 1 / i_clock $end
$var reg 1 0 i_in_valid $end
$var reg 1 1 i_reset $end
$var reg 1 2 o_out_valid $end
$scope module uut $end
$var wire 16 * i_in_data [WIDTH-1:0] $end
$var reg 16 + o_out_data [WIDTH-1:0] $end
$var reg 16 , out_data_reg [WIDTH-1:0] $end
$var reg 16 - reg_data_reg [WIDTH-1:0] $end
$var reg 3 . word_count [$clog2(NUM_WORDS)-1:0] $end
$var reg 1 2 o_out_valid $end
$var wire 1 4 i_clock $end
$var wire 1 5 i_in_valid $end
$var wire 1 6 i_reset $end
$var reg 1 7 out_valid_reg $end
$upscope $end
$upscope $end

$enddefinitions $end

#0
$dumpvars
b0 !
bX "
b0 #
bX $
b0 %
bX &
bX '
bX (
b1 )
bX *
bX +
bX ,
bX -
bX .
X/
X0
11
X2
X4
X5
16
X7
$end
#50
b0 $
b0 +
b0 ,
b0 -
b0 .
1/
02
14
07
#100
0/
04
#150
1/
14
#200
0/
04
#250
1/
14
#300
0/
04
#350
1/
14
#400
0/
04
#450
1/
14
#500
0/
04
#550
1/
14
#600
0/
04
#650
1/
14
#700
0/
04
#750
1/
14
#800
0/
04
#850
1/
14
#900
0/
04
#950
1/
14
#1000
0/
04
#1050
1/
14
#1100
0/
04
#1150
1/
14
#1200
0/
04
#1250
1/
14
#1300
0/
04
#1350
1/
14
#1400
0/
04
#1450
1/
14
#1500
0/
04
#1550
1/
14
#1600
0/
04
#1650
1/
14
#1700
0/
04
#1750
1/
14
#1800
0/
04
#1850
1/
14
#1900
0/
04
#1950
1/
14
#2000
0/
04
#2050
1/
14
#2100
0/
04
#2150
1/
14
#2200
0/
04
#2250
1/
14
#2300
0/
04
#2350
1/
14
#2400
0/
04
#2450
1/
14
#2500
0/
04
#2550
1/
14
#2600
0/
04
#2650
1/
14
#2700
0/
04
#2750
1/
14
#2800
0/
04
#2850
1/
14
#2900
0/
04
#2950
1/
14
#3000
0/
04
#3050
1/
14
#3100
0/
04
#3150
1/
14
#3200
0/
04
#3250
1/
14
#3300
0/
04
#3350
1/
14
#3400
0/
04
#3450
1/
14
#3500
0/
04
#3550
1/
14
#3600
0/
04
#3650
1/
14
#3700
0/
04
#3750
1/
14
#3800
0/
04
#3850
1/
14
#3900
0/
04
#3950
1/
14
#4000
0/
04
#4050
1/
14
#4100
0/
04
#4150
1/
14
#4200
0/
04
#4250
1/
14
#4300
0/
04
#4350
1/
14
#4400
0/
04
#4450
1/
14
#4500
0/
04
#4550
1/
14
#4600
0/
04
#4650
1/
14
#4700
0/
04
#4750
1/
14
#4800
0/
04
#4850
1/
14
#4900
0/
04
#4950
1/
14
#5000
0/
04
#5050
1/
14
#5100
0/
04
#5150
1/
14
#5200
0/
04
#5250
1/
14
#5300
0/
04
#5350
1/
14
#5400
0/
04
#5450
1/
14
#5500
0/
04
#5550
1/
14
#5600
0/
04
#5650
1/
14
#5700
0/
04
#5750
1/
14
#5800
0/
04
#5850
1/
14
#5900
0/
04
#5950
1/
14
#6000
0/
04
#6050
1/
14
#6100
0/
04
#6150
1/
14
#6200
0/
04
#6250
1/
14
#6300
0/
04
#6350
1/
14
#6400
0/
04
#6450
1/
14
#6500
0/
04
#6550
1/
14
#6600
0/
04
#6650
1/
14
#6700
0/
04
#6750
1/
14
#6800
0/
04
#6850
1/
14
#6900
0/
04
#6950
1/
14
#7000
0/
04
#7050
1/
14
#7100
0/
04
#7150
1/
14
#7200
0/
04
#7250
1/
14
#7300
0/
04
#7350
1/
14
#7400
0/
04
#7450
1/
14
#7500
0/
04
#7550
1/
14
#7600
0/
04
#7650
1/
14
#7700
0/
04
#7750
1/
14
#7800
0/
04
#7850
1/
14
#7900
0/
04
#7950
1/
14
#8000
0/
04
#8050
1/
14
#8100
0/
04
#8150
1/
14
#8200
0/
04
#8250
1/
14
#8300
0/
04
#8350
1/
14
#8400
0/
04
#8450
1/
14
#8500
0/
04
#8550
1/
14
#8600
0/
04
#8650
1/
14
#8700
0/
04
#8750
1/
14
#8800
0/
04
#8850
1/
14
#8900
0/
04
#8950
1/
14
#9000
0/
04
#9050
1/
14
#9100
0/
04
#9150
1/
14
#9200
0/
04
#9250
1/
14
#9300
0/
04
#9350
1/
14
#9400
0/
04
#9450
1/
14
#9500
0/
04
#9550
1/
14
#9600
0/
04
#9650
1/
14
#9700
0/
04
#9750
1/
14
#9800
0/
04
#9850
1/
14
#9900
0/
04
#9950
1/
14
#10000
b0 "
b0 *
0/
00
04
05
#10050
1/
14
#10100
0/
04
#10150
1/
14
#10200
0/
04
#10250
1/
14
#10300
0/
04
#10350
1/
14
#10400
0/
04
#10450
1/
14
#10500
0/
04
#10550
1/
14
#10600
0/
04
#10650
1/
14
#10700
0/
04
#10750
1/
14
#10800
0/
04
#10850
1/
14
#10900
0/
04
#10950
1/
14
#11000
0/
04
#11050
1/
14
#11100
0/
04
#11150
1/
14
#11200
0/
04
#11250
1/
14
#11300
0/
04
#11350
1/
14
#11400
0/
04
#11450
1/
14
#11500
0/
04
#11550
1/
14
#11600
0/
04
#11650
1/
14
#11700
0/
04
#11750
1/
14
#11800
0/
04
#11850
1/
14
#11900
0/
04
#11950
1/
14
#12000
0/
04
#12050
1/
14
#12100
0/
04
#12150
1/
14
#12200
0/
04
#12250
1/
14
#12300
0/
04
#12350
1/
14
#12400
0/
04
#12450
1/
14
#12500
0/
04
#12550
1/
14
#12600
0/
04
#12650
1/
14
#12700
0/
04
#12750
1/
14
#12800
0/
04
#12850
1/
14
#12900
0/
04
#12950
1/
14
#13000
0/
04
#13050
1/
14
#13100
0/
04
#13150
1/
14
#13200
0/
04
#13250
1/
14
#13300
0/
04
#13350
1/
14
#13400
0/
04
#13450
1/
14
#13500
0/
04
#13550
1/
14
#13600
0/
04
#13650
1/
14
#13700
0/
04
#13750
1/
14
#13800
0/
04
#13850
1/
14
#13900
0/
04
#13950
1/
14
#14000
0/
04
#14050
1/
14
#14100
0/
04
#14150
1/
14
#14200
0/
04
#14250
1/
14
#14300
0/
04
#14350
1/
14
#14400
0/
04
#14450
1/
14
#14500
0/
04
#14550
1/
14
#14600
0/
04
#14650
1/
14
#14700
0/
04
#14750
1/
14
#14800
0/
04
#14850
1/
14
#14900
0/
04
#14950
1/
14
#15000
0/
04
#15050
1/
14
#15100
0/
04
#15150
1/
14
#15200
0/
04
#15250
1/
14
#15300
0/
04
#15350
1/
14
#15400
0/
04
#15450
1/
14
#15500
0/
04
#15550
1/
14
#15600
0/
04
#15650
1/
14
#15700
0/
04
#15750
1/
14
#15800
0/
04
#15850
1/
14
#15900
0/
04
#15950
1/
14
#16000
0/
04
#16050
1/
14
#16100
0/
04
#16150
1/
14
#16200
0/
04
#16250
1/
14
#16300
0/
04
#16350
1/
14
#16400
0/
04
#16450
1/
14
#16500
0/
04
#16550
1/
14
#16600
0/
04
#16650
1/
14
#16700
0/
04
#16750
1/
14
#16800
0/
04
#16850
1/
14
#16900
0/
04
#16950
1/
14
#17000
0/
04
#17050
1/
14
#17100
0/
04
#17150
1/
14
#17200
0/
04
#17250
1/
14
#17300
0/
04
#17350
1/
14
#17400
0/
04
#17450
1/
14
#17500
0/
04
#17550
1/
14
#17600
0/
04
#17650
1/
14
#17700
0/
04
#17750
1/
14
#17800
0/
04
#17850
1/
14
#17900
0/
04
#17950
1/
14
#18000
0/
04
#18050
1/
14
#18100
0/
04
#18150
1/
14
#18200
0/
04
#18250
1/
14
#18300
0/
04
#18350
1/
14
#18400
0/
04
#18450
1/
14
#18500
0/
04
#18550
1/
14
#18600
0/
04
#18650
1/
14
#18700
0/
04
#18750
1/
14
#18800
0/
04
#18850
1/
14
#18900
0/
04
#18950
1/
14
#19000
0/
04
#19050
1/
14
#19100
0/
04
#19150
1/
14
#19200
0/
04
#19250
1/
14
#19300
0/
04
#19350
1/
14
#19400
0/
04
#19450
1/
14
#19500
0/
04
#19550
1/
14
#19600
0/
04
#19650
1/
14
#19700
0/
04
#19750
1/
14
#19800
0/
04
#19850
1/
14
#19900
0/
04
#19950
1/
14
#20000
0/
04
#20050
1/
14
#20100
0/
04
#20150
1/
14
#20200
0/
04
#20250
1/
14
#20300
0/
04
#20350
1/
14
#20400
0/
04
#20450
1/
14
#20500
0/
04
#20550
1/
14
#20600
0/
04
#20650
1/
14
#20700
0/
04
#20750
1/
14
#20800
0/
04
#20850
1/
14
#20900
0/
04
#20950
1/
14
#21000
0/
04
#21050
1/
14
#21100
0/
04
#21150
1/
14
#21200
0/
04
#21250
1/
14
#21300
0/
04
#21350
1/
14
#21400
0/
04
#21450
1/
14
#21500
0/
04
#21550
1/
14
#21600
0/
04
#21650
1/
14
#21700
0/
04
#21750
1/
14
#21800
0/
04
#21850
1/
14
#21900
0/
04
#21950
1/
14
#22000
0/
04
#22050
1/
14
#22100
0/
04
#22150
1/
14
#22200
0/
04
#22250
1/
14
#22300
0/
04
#22350
1/
14
#22400
0/
04
#22450
1/
14
#22500
0/
04
#22550
1/
14
#22600
0/
04
#22650
1/
14
#22700
0/
04
#22750
1/
14
#22800
0/
04
#22850
1/
14
#22900
0/
04
#22950
1/
14
#23000
0/
04
#23050
1/
14
#23100
0/
04
#23150
1/
14
#23200
0/
04
#23250
1/
14
#23300
0/
04
#23350
1/
14
#23400
0/
04
#23450
1/
14
#23500
0/
04
#23550
1/
14
#23600
0/
04
#23650
1/
14
#23700
0/
04
#23750
1/
14
#23800
0/
04
#23850
1/
14
#23900
0/
04
#23950
1/
14
#24000
0/
04
#24050
1/
14
#24100
0/
04
#24150
1/
14
#24200
0/
04
#24250
1/
14
#24300
0/
04
#24350
1/
14
#24400
0/
04
#24450
1/
14
#24500
0/
04
#24550
1/
14
#24600
0/
04
#24650
1/
14
#24700
0/
04
#24750
1/
14
#24800
0/
04
#24850
1/
14
#24900
0/
04
#24950
1/
14
#25000
0/
04
#25050
1/
14
#25100
0/
04
#25150
1/
14
#25200
0/
04
#25250
1/
14
#25300
0/
04
#25350
1/
14
#25400
0/
04
#25450
1/
14
#25500
0/
04
#25550
1/
14
#25600
0/
04
#25650
1/
14
#25700
0/
04
#25750
1/
14
#25800
0/
04
#25850
1/
14
#25900
0/
04
#25950
1/
14
#26000
0/
04
#26050
1/
14
#26100
0/
04
#26150
1/
14
#26200
0/
04
#26250
1/
14
#26300
0/
04
#26350
1/
14
#26400
0/
04
#26450
1/
14
#26500
0/
04
#26550
1/
14
#26600
0/
04
#26650
1/
14
#26700
0/
04
#26750
1/
14
#26800
0/
04
#26850
1/
14
#26900
0/
04
#26950
1/
14
#27000
0/
04
#27050
1/
14
#27100
0/
04
#27150
1/
14
#27200
0/
04
#27250
1/
14
#27300
0/
04
#27350
1/
14
#27400
0/
04
#27450
1/
14
#27500
0/
04
#27550
1/
14
#27600
0/
04
#27650
1/
14
#27700
0/
04
#27750
1/
14
#27800
0/
04
#27850
1/
14
#27900
0/
04
#27950
1/
14
#28000
0/
04
#28050
1/
14
#28100
0/
04
#28150
1/
14
#28200
0/
04
#28250
1/
14
#28300
0/
04
#28350
1/
14
#28400
0/
04
#28450
1/
14
#28500
0/
04
#28550
1/
14
#28600
0/
04
#28650
1/
14
#28700
0/
04
#28750
1/
14
#28800
0/
04
#28850
1/
14
#28900
0/
04
#28950
1/
14
#29000
0/
04
#29050
1/
14
#29100
0/
04
#29150
1/
14
#29200
0/
04
#29250
1/
14
#29300
0/
04
#29350
1/
14
#29400
0/
04
#29450
1/
14
#29500
0/
04
#29550
1/
14
#29600
0/
04
#29650
1/
14
#29700
0/
04
#29750
1/
14
#29800
0/
04
#29850
1/
14
#29900
0/
04
#29950
1/
14
#30000
0/
01
04
06
#30050
1/
14
#30100
0/
04
#30150
1/
14
#30200
0/
04
#30250
1/
14
#30300
0/
04
#30350
1/
14
#30400
0/
04
#30450
1/
14
#30500
0/
04
#30550
1/
14
#30600
0/
04
#30650
1/
14
#30700
0/
04
#30750
1/
14
#30800
0/
04
#30850
1/
14
#30900
0/
04
#30950
1/
14
#31000
0/
04
#31050
1/
14
#31100
0/
04
#31150
1/
14
#31200
0/
04
#31250
1/
14
#31300
0/
04
#31350
1/
14
#31400
0/
04
#31450
1/
14
#31500
0/
04
#31550
1/
14
#31600
0/
04
#31650
1/
14
#31700
0/
04
#31750
1/
14
#31800
0/
04
#31850
1/
14
#31900
0/
04
#31950
1/
14
#32000
0/
04
#32050
1/
14
#32100
0/
04
#32150
1/
14
#32200
0/
04
#32250
1/
14
#32300
0/
04
#32350
1/
14
#32400
0/
04
#32450
1/
14
#32500
0/
04
#32550
1/
14
#32600
0/
04
#32650
1/
14
#32700
0/
04
#32750
1/
14
#32800
0/
04
#32850
1/
14
#32900
0/
04
#32950
1/
14
#33000
0/
04
#33050
1/
14
#33100
0/
04
#33150
1/
14
#33200
0/
04
#33250
1/
14
#33300
0/
04
#33350
1/
14
#33400
0/
04
#33450
1/
14
#33500
0/
04
#33550
1/
14
#33600
0/
04
#33650
1/
14
#33700
0/
04
#33750
1/
14
#33800
0/
04
#33850
1/
14
#33900
0/
04
#33950
1/
14
#34000
0/
04
#34050
1/
14
#34100
0/
04
#34150
1/
14
#34200
0/
04
#34250
1/
14
#34300
0/
04
#34350
1/
14
#34400
0/
04
#34450
1/
14
#34500
0/
04
#34550
1/
14
#34600
0/
04
#34650
1/
14
#34700
0/
04
#34750
1/
14
#34800
0/
04
#34850
1/
14
#34900
0/
04
#34950
1/
14
#35000
0/
04
#35050
1/
14
#35100
0/
04
#35150
1/
14
#35200
0/
04
#35250
1/
14
#35300
0/
04
#35350
1/
14
#35400
0/
04
#35450
1/
14
#35500
0/
04
#35550
1/
14
#35600
0/
04
#35650
1/
14
#35700
0/
04
#35750
1/
14
#35800
0/
04
#35850
1/
14
#35900
0/
04
#35950
1/
14
#36000
0/
04
#36050
1/
14
#36100
0/
04
#36150
1/
14
#36200
0/
04
#36250
1/
14
#36300
0/
04
#36350
1/
14
#36400
0/
04
#36450
1/
14
#36500
0/
04
#36550
1/
14
#36600
0/
04
#36650
1/
14
#36700
0/
04
#36750
1/
14
#36800
0/
04
#36850
1/
14
#36900
0/
04
#36950
1/
14
#37000
0/
04
#37050
1/
14
#37100
0/
04
#37150
1/
14
#37200
0/
04
#37250
1/
14
#37300
0/
04
#37350
1/
14
#37400
0/
04
#37450
1/
14
#37500
0/
04
#37550
1/
14
#37600
0/
04
#37650
1/
14
#37700
0/
04
#37750
1/
14
#37800
0/
04
#37850
1/
14
#37900
0/
04
#37950
1/
14
#38000
0/
04
#38050
1/
14
#38100
0/
04
#38150
1/
14
#38200
0/
04
#38250
1/
14
#38300
0/
04
#38350
1/
14
#38400
0/
04
#38450
1/
14
#38500
0/
04
#38550
1/
14
#38600
0/
04
#38650
1/
14
#38700
0/
04
#38750
1/
14
#38800
0/
04
#38850
1/
14
#38900
0/
04
#38950
1/
14
#39000
0/
04
#39050
1/
14
#39100
0/
04
#39150
1/
14
#39200
0/
04
#39250
1/
14
#39300
0/
04
#39350
1/
14
#39400
0/
04
#39450
1/
14
#39500
0/
04
#39550
1/
14
#39600
0/
04
#39650
1/
14
#39700
0/
04
#39750
1/
14
#39800
0/
04
#39850
1/
14
#39900
0/
04
#39950
1/
14
#40000
0/
04
#40050
1/
14
#40100
0/
04
#40150
1/
14
#40200
0/
04
#40250
1/
14
#40300
0/
04
#40350
1/
14
#40400
0/
04
#40450
1/
14
#40500
0/
04
#40550
1/
14
#40600
0/
04
#40650
1/
14
#40700
0/
04
#40750
1/
14
#40800
0/
04
#40850
1/
14
#40900
0/
04
#40950
1/
14
#41000
0/
04
#41050
1/
14
#41100
0/
04
#41150
1/
14
#41200
0/
04
#41250
1/
14
#41300
0/
04
#41350
1/
14
#41400
0/
04
#41450
1/
14
#41500
0/
04
#41550
1/
14
#41600
0/
04
#41650
1/
14
#41700
0/
04
#41750
1/
14
#41800
0/
04
#41850
1/
14
#41900
0/
04
#41950
1/
14
#42000
0/
04
#42050
1/
14
#42100
0/
04
#42150
1/
14
#42200
0/
04
#42250
1/
14
#42300
0/
04
#42350
1/
14
#42400
0/
04
#42450
1/
14
#42500
0/
04
#42550
1/
14
#42600
0/
04
#42650
1/
14
#42700
0/
04
#42750
1/
14
#42800
0/
04
#42850
1/
14
#42900
0/
04
#42950
1/
14
#43000
0/
04
#43050
1/
14
#43100
0/
04
#43150
1/
14
#43200
0/
04
#43250
1/
14
#43300
0/
04
#43350
1/
14
#43400
0/
04
#43450
1/
14
#43500
0/
04
#43550
1/
14
#43600
0/
04
#43650
1/
14
#43700
0/
04
#43750
1/
14
#43800
0/
04
#43850
1/
14
#43900
0/
04
#43950
1/
14
#44000
0/
04
#44050
1/
14
#44100
0/
04
#44150
1/
14
#44200
0/
04
#44250
1/
14
#44300
0/
04
#44350
1/
14
#44400
0/
04
#44450
1/
14
#44500
0/
04
#44550
1/
14
#44600
0/
04
#44650
1/
14
#44700
0/
04
#44750
1/
14
#44800
0/
04
#44850
1/
14
#44900
0/
04
#44950
1/
14
#45000
0/
04
#45050
1/
14
#45100
0/
04
#45150
1/
14
#45200
0/
04
#45250
1/
14
#45300
0/
04
#45350
1/
14
#45400
0/
04
#45450
1/
14
#45500
0/
04
#45550
1/
14
#45600
0/
04
#45650
1/
14
#45700
0/
04
#45750
1/
14
#45800
0/
04
#45850
1/
14
#45900
0/
04
#45950
1/
14
#46000
0/
04
#46050
1/
14
#46100
0/
04
#46150
1/
14
#46200
0/
04
#46250
1/
14
#46300
0/
04
#46350
1/
14
#46400
0/
04
#46450
1/
14
#46500
0/
04
#46550
1/
14
#46600
0/
04
#46650
1/
14
#46700
0/
04
#46750
1/
14
#46800
0/
04
#46850
1/
14
#46900
0/
04
#46950
1/
14
#47000
0/
04
#47050
1/
14
#47100
0/
04
#47150
1/
14
#47200
0/
04
#47250
1/
14
#47300
0/
04
#47350
1/
14
#47400
0/
04
#47450
1/
14
#47500
0/
04
#47550
1/
14
#47600
0/
04
#47650
1/
14
#47700
0/
04
#47750
1/
14
#47800
0/
04
#47850
1/
14
#47900
0/
04
#47950
1/
14
#48000
0/
04
#48050
1/
14
#48100
0/
04
#48150
1/
14
#48200
0/
04
#48250
1/
14
#48300
0/
04
#48350
1/
14
#48400
0/
04
#48450
1/
14
#48500
0/
04
#48550
1/
14
#48600
0/
04
#48650
1/
14
#48700
0/
04
#48750
1/
14
#48800
0/
04
#48850
1/
14
#48900
0/
04
#48950
1/
14
#49000
0/
04
#49050
1/
14
#49100
0/
04
#49150
1/
14
#49200
0/
04
#49250
1/
14
#49300
0/
04
#49350
1/
14
#49400
0/
04
#49450
1/
14
#49500
0/
04
#49550
1/
14
#49600
0/
04
#49650
1/
14
#49700
0/
04
#49750
1/
14
#49800
0/
04
#49850
1/
14
#49900
0/
04
#49950
1/
14
#50000
0/
04
#50050
1/
14
#50100
0/
04
#50150
1/
14
#50200
0/
04
#50250
1/
14
#50300
0/
04
#50350
1/
14
#50400
0/
04
#50450
1/
14
#50500
0/
04
#50550
1/
14
#50600
0/
04
#50650
1/
14
#50700
0/
04
#50750
1/
14
#50800
0/
04
#50850
1/
14
#50900
0/
04
#50950
1/
14
#51000
0/
04
#51050
1/
14
#51100
0/
04
#51150
1/
14
#51200
0/
04
#51250
1/
14
#51300
0/
04
#51350
1/
14
#51400
0/
04
#51450
1/
14
#51500
0/
04
#51550
1/
14
#51600
0/
04
#51650
1/
14
#51700
0/
04
#51750
1/
14
#51800
b10 )
0/
11
04
16
#51850
1/
14
#51900
0/
04
#51950
1/
14
#52000
0/
04
#52050
1/
14
#52100
0/
04
#52150
1/
14
#52200
0/
04
#52250
1/
14
#52300
0/
04
#52350
1/
14
#52400
0/
04
#52450
1/
14
#52500
0/
04
#52550
1/
14
#52600
0/
04
#52650
1/
14
#52700
0/
04
#52750
1/
14
#52800
0/
04
#52850
1/
14
#52900
0/
04
#52950
1/
14
#53000
0/
04
#53050
1/
14
#53100
0/
04
#53150
1/
14
#53200
0/
04
#53250
1/
14
#53300
0/
04
#53350
1/
14
#53400
0/
04
#53450
1/
14
#53500
0/
04
#53550
1/
14
#53600
0/
04
#53650
1/
14
#53700
0/
04
#53750
1/
14
#53800
0/
04
#53850
1/
14
#53900
0/
04
#53950
1/
14
#54000
0/
04
#54050
1/
14
#54100
0/
04
#54150
1/
14
#54200
0/
04
#54250
1/
14
#54300
0/
04
#54350
1/
14
#54400
0/
04
#54450
1/
14
#54500
0/
04
#54550
1/
14
#54600
0/
04
#54650
1/
14
#54700
0/
04
#54750
1/
14
#54800
0/
04
#54850
1/
14
#54900
0/
04
#54950
1/
14
#55000
0/
04
#55050
1/
14
#55100
0/
04
#55150
1/
14
#55200
0/
04
#55250
1/
14
#55300
0/
04
#55350
1/
14
#55400
0/
04
#55450
1/
14
#55500
0/
04
#55550
1/
14
#55600
0/
04
#55650
1/
14
#55700
0/
04
#55750
1/
14
#55800
0/
04
#55850
1/
14
#55900
0/
04
#55950
1/
14
#56000
0/
04
#56050
1/
14
#56100
0/
04
#56150
1/
14
#56200
0/
04
#56250
1/
14
#56300
0/
04
#56350
1/
14
#56400
0/
04
#56450
1/
14
#56500
0/
04
#56550
1/
14
#56600
0/
04
#56650
1/
14
#56700
0/
04
#56750
1/
14
#56800
0/
04
#56850
1/
14
#56900
0/
04
#56950
1/
14
#57000
0/
04
#57050
1/
14
#57100
0/
04
#57150
1/
14
#57200
0/
04
#57250
1/
14
#57300
0/
04
#57350
1/
14
#57400
0/
04
#57450
1/
14
#57500
0/
04
#57550
1/
14
#57600
0/
04
#57650
1/
14
#57700
0/
04
#57750
1/
14
#57800
0/
04
#57850
1/
14
#57900
0/
04
#57950
1/
14
#58000
0/
04
#58050
1/
14
#58100
0/
04
#58150
1/
14
#58200
0/
04
#58250
1/
14
#58300
0/
04
#58350
1/
14
#58400
0/
04
#58450
1/
14
#58500
0/
04
#58550
1/
14
#58600
0/
04
#58650
1/
14
#58700
0/
04
#58750
1/
14
#58800
0/
04
#58850
1/
14
#58900
0/
04
#58950
1/
14
#59000
0/
04
#59050
1/
14
#59100
0/
04
#59150
1/
14
#59200
0/
04
#59250
1/
14
#59300
0/
04
#59350
1/
14
#59400
0/
04
#59450
1/
14
#59500
0/
04
#59550
1/
14
#59600
0/
04
#59650
1/
14
#59700
0/
04
#59750
1/
14
#59800
0/
04
#59850
1/
14
#59900
0/
04
#59950
1/
14
#60000
0/
04
#60050
1/
14
#60100
0/
04
#60150
1/
14
#60200
0/
04
#60250
1/
14
#60300
0/
04
#60350
1/
14
#60400
0/
04
#60450
1/
14
#60500
0/
04
#60550
1/
14
#60600
0/
04
#60650
1/
14
#60700
0/
04
#60750
1/
14
#60800
0/
04
#60850
1/
14
#60900
0/
04
#60950
1/
14
#61000
0/
04
#61050
1/
14
#61100
0/
04
#61150
1/
14
#61200
0/
04
#61250
1/
14
#61300
0/
04
#61350
1/
14
#61400
0/
04
#61450
1/
14
#61500
0/
04
#61550
1/
14
#61600
0/
04
#61650
1/
14
#61700
0/
04
#61750
1/
14
#61800
0/
01
04
06
#61850
1/
14
#61900
0/
04
#61950
1/
14
#62000
0/
04
#62050
1/
14
#62100
0/
04
#62150
1/
14
#62200
0/
04
#62250
1/
14
#62300
0/
04
#62350
1/
14
#62400
0/
04
#62450
1/
14
#62500
0/
04
#62550
1/
14
#62600
0/
04
#62650
1/
14
#62700
0/
04
#62750
1/
14
#62800
0/
04
#62850
1/
14
#62900
0/
04
#62950
1/
14
#63000
0/
04
#63050
1/
14
#63100
0/
04
#63150
1/
14
#63200
0/
04
#63250
1/
14
#63300
0/
04
#63350
1/
14
#63400
0/
04
#63450
1/
14
#63500
0/
04
#63550
1/
14
#63600
0/
04
#63650
1/
14
#63700
0/
04
#63750
1/
14
#63800
0/
04
#63850
1/
14
#63900
0/
04
#63950
1/
14
#64000
0/
04
#64050
1/
14
#64100
0/
04
#64150
1/
14
#64200
0/
04
#64250
1/
14
#64300
0/
04
#64350
1/
14
#64400
0/
04
#64450
1/
14
#64500
0/
04
#64550
1/
14
#64600
0/
04
#64650
1/
14
#64700
0/
04
#64750
1/
14
#64800
0/
04
#64850
1/
14
#64900
0/
04
#64950
1/
14
#65000
0/
04
#65050
1/
14
#65100
0/
04
#65150
1/
14
#65200
0/
04
#65250
1/
14
#65300
0/
04
#65350
1/
14
#65400
0/
04
#65450
1/
14
#65500
0/
04
#65550
1/
14
#65600
0/
04
#65650
1/
14
#65700
0/
04
#65750
1/
14
#65800
0/
04
#65850
1/
14
#65900
0/
04
#65950
1/
14
#66000
0/
04
#66050
1/
14
#66100
0/
04
#66150
1/
14
#66200
0/
04
#66250
1/
14
#66300
0/
04
#66350
1/
14
#66400
0/
04
#66450
1/
14
#66500
0/
04
#66550
1/
14
#66600
0/
04
#66650
1/
14
#66700
0/
04
#66750
1/
14
#66800
0/
04
#66850
1/
14
#66900
0/
04
#66950
1/
14
#67000
0/
04
#67050
1/
14
#67100
0/
04
#67150
1/
14
#67200
0/
04
#67250
1/
14
#67300
0/
04
#67350
1/
14
#67400
0/
04
#67450
1/
14
#67500
0/
04
#67550
1/
14
#67600
0/
04
#67650
1/
14
#67700
0/
04
#67750
1/
14
#67800
0/
04
#67850
1/
14
#67900
0/
04
#67950
1/
14
#68000
0/
04
#68050
1/
14
#68100
0/
04
#68150
1/
14
#68200
0/
04
#68250
1/
14
#68300
0/
04
#68350
1/
14
#68400
0/
04
#68450
1/
14
#68500
0/
04
#68550
1/
14
#68600
0/
04
#68650
1/
14
#68700
0/
04
#68750
1/
14
#68800
0/
04
#68850
1/
14
#68900
0/
04
#68950
1/
14
#69000
0/
04
#69050
1/
14
#69100
0/
04
#69150
1/
14
#69200
0/
04
#69250
1/
14
#69300
0/
04
#69350
1/
14
#69400
0/
04
#69450
1/
14
#69500
0/
04
#69550
1/
14
#69600
0/
04
#69650
1/
14
#69700
0/
04
#69750
1/
14
#69800
0/
04
#69850
1/
14
#69900
0/
04
#69950
1/
14
#70000
0/
04
#70050
1/
14
#70100
0/
04
#70150
1/
14
#70200
0/
04
#70250
1/
14
#70300
0/
04
#70350
1/
14
#70400
0/
04
#70450
1/
14
#70500
0/
04
#70550
1/
14
#70600
0/
04
#70650
1/
14
#70700
0/
04
#70750
1/
14
#70800
0/
04
#70850
1/
14
#70900
0/
04
#70950
1/
14
#71000
0/
04
#71050
1/
14
#71100
0/
04
#71150
1/
14
#71200
0/
04
#71250
1/
14
#71300
0/
04
#71350
1/
14
#71400
0/
04
#71450
1/
14
#71500
0/
04
#71550
1/
14
#71600
0/
04
#71650
1/
14
#71700
0/
04
#71750
1/
14
#71800
0/
10
04
15
#71850
b1 .
1/
12
14
17
#71900
0/
04
#71950
b1 %
b10 .
1/
14
#72000
0/
04
#72050
b10 %
b11 .
1/
14
#72100
0/
04
#72150
b11 %
b100 .
1/
14
#72200
0/
04
#72250
b100 %
b101 .
1/
14
#72300
0/
04
#72350
b101 %
b110 .
1/
14
#72400
0/
04
#72450
b110 %
b111 .
1/
14
#72500
0/
04
#72550
b111 %
b0 .
1/
14
#72600
0/
00
04
05
#72650
b1000 %
1/
02
14
07
